[gd_scene load_steps=2 format=2]

[ext_resource path="res://levels/Camera.gd" type="Script" id=1]

[node name="LevelCamera" type="Camera2D"]
process_priority = 10
anchor_mode = 0
current = true
editor_draw_screen = false
script = ExtResource( 1 )
