[gd_scene load_steps=2 format=2]

[ext_resource path="res://fx/Collect.gd" type="Script" id=1]

[node name="Collect" type="Polygon2D"]
rotation = 0.785398
scale = Vector2( 4, 4 )
polygon = PoolVector2Array( -1, -1, 1, -1, 1, 1, -1, 1 )
script = ExtResource( 1 )
