[gd_scene load_steps=3 format=2]

[ext_resource path="res://collectibles/Base.gd" type="Script" id=1]

[sub_resource type="RectangleShape2D" id=1]
extents = Vector2( 8, 8 )

[node name="Collectible" type="Area2D"]
collision_layer = 2
collision_mask = 2
script = ExtResource( 1 )
uid = 2686572105

[node name="CollisionShape2D" type="CollisionShape2D" parent="."]
position = Vector2( 8, 8 )
shape = SubResource( 1 )

[node name="Sprite" type="Sprite" parent="."]
centered = false
